___  ___                                             
|  \/  |                                             
| .  . | ___  ___ ___  __ _  __ _  ___               
| |\/| |/ _ \/ __/ __|/ _` |/ _` |/ _ \              
| |  | |  __/\__ \__ \ (_| | (_| |  __/              
\_|  |_/\___||___/___/\__,_|\__, |\___|              
                             __/ |                   
                            |___/                    
 _____                    _       _   _              
|_   _|                  | |     | | (_)             
  | | ___ _ __ ___  _ __ | | __ _| |_ _ _ __   __ _  
  | |/ _ \ '_ ` _ \| '_ \| |/ _` | __| | '_ \ / _` | 
  | |  __/ | | | | | |_) | | (_| | |_| | | | | (_| | 
  \_/\___|_| |_| |_| .__/|_|\__,_|\__|_|_| |_|\__, | 
                   | |                         __/ | 
                   |_|                        |___/  
 _____                 _                             
/  ___|               (_)                            
\ `--.  ___ _ ____   ___  ___ ___                    
 `--. \/ _ \ '__\ \ / / |/ __/ _ \                   
/\__/ /  __/ |   \ V /| | (_|  __/                   
\____/ \___|_|    \_/ |_|\___\___|                   
                                                     